purchase_order	delivery_order	invoice_order	payment_order	warning
{'purchase_order': {'order_no': 'PO-000241', 'purchase_order_id': 'PO-000241', 'message': 'already exists', 'error_message': None, 'jurnal_message': None}, 'delivery_order': {'order_no': 'PO-000241', 'purchase_delivery_id': 'PD-000239', 'message': 'already exists', 'error_message': None, 'jurnal_message': None}, 'invoice_order': {'order_no': 'PO-000241', 'purchase_invoice_id': 1219844, 'message': 'already exists', 'error_message': None, 'jurnal_message': None}, 'payment_order': {'order_no': 'PO-000241', 'purchase_payment_id': None, 'message': 'payment data not available', 'error_message': None, 'jurnal_message': None}, 'warning': []}
{'purchase_order': {'order_no': 'PO-000214', 'purchase_order_id': 'PO-000214', 'message': 'already exists', 'error_message': None, 'jurnal_message': None}, 'delivery_order': {'order_no': 'PO-000214', 'purchase_delivery_id': 'PD-000214', 'message': 'already exists', 'error_message': None, 'jurnal_message': None}, 'invoice_order': {'order_no': 'PO-000214', 'purchase_invoice_id': 1219847, 'message': 'already exists', 'error_message': None, 'jurnal_message': None}, 'payment_order': {'order_no': 'PO-000214', 'purchase_payment_id': None, 'message': 'payment data not available', 'error_message': None, 'jurnal_message': None}, 'warning': ['this transaction has multiple deliveries data']}
{'purchase_order': {'order_no': 'PO-000209', 'purchase_order_id': 'PO-000209', 'message': 'already exists', 'error_message': None, 'jurnal_message': None}, 'delivery_order': {'order_no': 'PO-000209', 'purchase_delivery_id': 'PD-000212', 'message': 'already exists', 'error_message': None, 'jurnal_message': None}, 'invoice_order': {'order_no': 'PO-000209', 'purchase_invoice_id': 1219850, 'message': 'already exists', 'error_message': None, 'jurnal_message': None}, 'payment_order': {'order_no': 'PO-000209', 'purchase_payment_id': None, 'message': 'payment data not available', 'error_message': None, 'jurnal_message': None}, 'warning': []}
{'purchase_order': {'order_no': 'PO-000205', 'purchase_order_id': 'PO-000205', 'message': 'already exists', 'error_message': None, 'jurnal_message': None}, 'delivery_order': {'order_no': 'PO-000205', 'purchase_delivery_id': 'PD-000205', 'message': 'already exists', 'error_message': None, 'jurnal_message': None}, 'invoice_order': {'order_no': 'PO-000205', 'purchase_invoice_id': 1219853, 'message': 'already exists', 'error_message': None, 'jurnal_message': None}, 'payment_order': {'order_no': 'PO-000205', 'purchase_payment_id': None, 'message': 'payment data not available', 'error_message': None, 'jurnal_message': None}, 'warning': []}
{'purchase_order': {'order_no': 'PO-000206', 'purchase_order_id': 'PO-000206', 'message': 'already exists', 'error_message': None, 'jurnal_message': None}, 'delivery_order': {'order_no': 'PO-000206', 'purchase_delivery_id': 'PD-000236', 'message': 'already exists', 'error_message': None, 'jurnal_message': None}, 'invoice_order': {'order_no': 'PO-000206', 'purchase_invoice_id': 1219856, 'message': 'already exists', 'error_message': None, 'jurnal_message': None}, 'payment_order': {'order_no': 'PO-000206', 'purchase_payment_id': None, 'message': 'payment data not available', 'error_message': None, 'jurnal_message': None}, 'warning': ['this transaction has multiple deliveries data', 'this transaction has multiple invoices data']}
{'purchase_order': {'order_no': 'PO-000215', 'purchase_order_id': 'PO-000215', 'message': 'already exists', 'error_message': None, 'jurnal_message': None}, 'delivery_order': {'order_no': 'PO-000215', 'purchase_delivery_id': None, 'message': 'deliveries data not available', 'error_message': None, 'jurnal_message': None}, 'invoice_order': {'order_no': 'PO-000215', 'purchase_invoice_id': None, 'message': 'invoices data not available', 'error_message': None, 'jurnal_message': None}, 'payment_order': {'order_no': 'PO-000215', 'purchase_payment_id': None, 'message': 'payment data not available', 'error_message': None, 'jurnal_message': None}, 'warning': []}
{'purchase_order': {'order_no': 'PO-000225', 'purchase_order_id': 'PO-000225', 'message': 'already exists', 'error_message': None, 'jurnal_message': None}, 'delivery_order': {'order_no': 'PO-000225', 'purchase_delivery_id': 'PD-000229', 'message': 'already exists', 'error_message': None, 'jurnal_message': None}, 'invoice_order': {'order_no': 'PO-000225', 'purchase_invoice_id': 1219860, 'message': 'already exists', 'error_message': None, 'jurnal_message': None}, 'payment_order': {'order_no': 'PO-000225', 'purchase_payment_id': None, 'message': 'payment data not available', 'error_message': None, 'jurnal_message': None}, 'warning': []}
